DM Object:Parallel Mesh 2 MPI processes
  type: plex
Mesh 'Parallel Mesh':
orientation is missing
cap --> base:
[0] Max sizes cone: 3 support: 2
[0]: 1 ----> 4
[0]: 1 ----> 6
[0]: 2 ----> 4
[0]: 2 ----> 5
[0]: 3 ----> 5
[0]: 3 ----> 6
[0]: 4 ----> 0
[0]: 5 ----> 0
[0]: 6 ----> 0
[1] Max sizes cone: 3 support: 2
[1]: 1 ----> 4
[1]: 1 ----> 6
[1]: 2 ----> 5
[1]: 2 ----> 6
[1]: 3 ----> 4
[1]: 3 ----> 5
[1]: 4 ----> 0
[1]: 5 ----> 0
[1]: 6 ----> 0
base <-- cap:
[0]: 0 <---- 4 (0)
[0]: 0 <---- 5 (0)
[0]: 0 <---- 6 (0)
[0]: 4 <---- 1 (0)
[0]: 4 <---- 2 (0)
[0]: 5 <---- 2 (0)
[0]: 5 <---- 3 (0)
[0]: 6 <---- 3 (0)
[0]: 6 <---- 1 (0)
[1]: 0 <---- 4 (0)
[1]: 0 <---- 5 (0)
[1]: 0 <---- 6 (0)
[1]: 4 <---- 1 (0)
[1]: 4 <---- 3 (0)
[1]: 5 <---- 3 (0)
[1]: 5 <---- 2 (0)
[1]: 6 <---- 2 (0)
[1]: 6 <---- 1 (0)
coordinates with 1 fields
  field 0 with 2 components
Process 0:
  (   1) dim  2 offset   0 -0.5 0.5
  (   2) dim  2 offset   2 0. 0.
  (   3) dim  2 offset   4 0. 1.
Process 1:
  (   1) dim  2 offset   0 0. 0.
  (   2) dim  2 offset   2 0. 1.
  (   3) dim  2 offset   4 0.5 0.5
Label 'marker':
[0]: 1 (1)
[0]: 2 (1)
[0]: 3 (1)
[1]: 1 (1)
[1]: 2 (1)
[1]: 3 (1)
PetscSF Object: 2 MPI processes
  type not yet set
  [0] Number of roots=7, leaves=3, remote ranks=1
  [0] 2 <- (1,1)
  [0] 3 <- (1,2)
  [0] 5 <- (1,6)
  [1] Number of roots=7, leaves=0, remote ranks=0
  [0] Roots referenced by my leaves, by rank
  [0] 1: 3 edges
  [0]    2 <- 1
  [0]    3 <- 2
  [0]    5 <- 6
  [1] Roots referenced by my leaves, by rank