DM Object: Simplicial Mesh 2 MPI processes
  type: plex
Mesh 'Simplicial Mesh':
orientation is missing
cap --> base:
[0] Max sizes cone: 4 support: 4
[0]: 8 ----> 23
[0]: 8 ----> 31
[0]: 9 ----> 24
[0]: 9 ----> 25
[0]: 9 ----> 33
[0]: 10 ----> 26
[0]: 10 ----> 35
[0]: 11 ----> 27
[0]: 11 ----> 32
[0]: 12 ----> 28
[0]: 12 ----> 29
[0]: 12 ----> 34
[0]: 13 ----> 30
[0]: 13 ----> 36
[0]: 14 ----> 23
[0]: 14 ----> 24
[0]: 14 ----> 37
[0]: 15 ----> 25
[0]: 15 ----> 26
[0]: 15 ----> 41
[0]: 16 ----> 27
[0]: 16 ----> 28
[0]: 16 ----> 39
[0]: 17 ----> 29
[0]: 17 ----> 30
[0]: 17 ----> 43
[0]: 18 ----> 31
[0]: 18 ----> 32
[0]: 18 ----> 40
[0]: 19 ----> 33
[0]: 19 ----> 34
[0]: 19 ----> 38
[0]: 19 ----> 44
[0]: 20 ----> 35
[0]: 20 ----> 36
[0]: 20 ----> 42
[0]: 21 ----> 37
[0]: 21 ----> 38
[0]: 21 ----> 39
[0]: 21 ----> 40
[0]: 22 ----> 41
[0]: 22 ----> 42
[0]: 22 ----> 43
[0]: 22 ----> 44
[0]: 23 ----> 0
[0]: 24 ----> 1
[0]: 25 ----> 4
[0]: 26 ----> 5
[0]: 27 ----> 3
[0]: 28 ----> 2
[0]: 29 ----> 7
[0]: 30 ----> 6
[0]: 31 ----> 0
[0]: 32 ----> 3
[0]: 33 ----> 1
[0]: 33 ----> 4
[0]: 34 ----> 2
[0]: 34 ----> 7
[0]: 35 ----> 5
[0]: 36 ----> 6
[0]: 37 ----> 0
[0]: 37 ----> 1
[0]: 38 ----> 1
[0]: 38 ----> 2
[0]: 39 ----> 2
[0]: 39 ----> 3
[0]: 40 ----> 3
[0]: 40 ----> 0
[0]: 41 ----> 4
[0]: 41 ----> 5
[0]: 42 ----> 5
[0]: 42 ----> 6
[0]: 43 ----> 6
[0]: 43 ----> 7
[0]: 44 ----> 7
[0]: 44 ----> 4
[1] Max sizes cone: 4 support: 4
[1]: 8 ----> 23
[1]: 8 ----> 31
[1]: 9 ----> 24
[1]: 9 ----> 25
[1]: 9 ----> 33
[1]: 10 ----> 26
[1]: 10 ----> 35
[1]: 11 ----> 27
[1]: 11 ----> 32
[1]: 12 ----> 28
[1]: 12 ----> 29
[1]: 12 ----> 34
[1]: 13 ----> 30
[1]: 13 ----> 36
[1]: 14 ----> 23
[1]: 14 ----> 24
[1]: 14 ----> 37
[1]: 15 ----> 25
[1]: 15 ----> 26
[1]: 15 ----> 41
[1]: 16 ----> 27
[1]: 16 ----> 28
[1]: 16 ----> 39
[1]: 17 ----> 29
[1]: 17 ----> 30
[1]: 17 ----> 43
[1]: 18 ----> 31
[1]: 18 ----> 32
[1]: 18 ----> 40
[1]: 19 ----> 33
[1]: 19 ----> 34
[1]: 19 ----> 38
[1]: 19 ----> 44
[1]: 20 ----> 35
[1]: 20 ----> 36
[1]: 20 ----> 42
[1]: 21 ----> 37
[1]: 21 ----> 38
[1]: 21 ----> 39
[1]: 21 ----> 40
[1]: 22 ----> 41
[1]: 22 ----> 42
[1]: 22 ----> 43
[1]: 22 ----> 44
[1]: 23 ----> 0
[1]: 24 ----> 1
[1]: 25 ----> 4
[1]: 26 ----> 5
[1]: 27 ----> 3
[1]: 28 ----> 2
[1]: 29 ----> 7
[1]: 30 ----> 6
[1]: 31 ----> 0
[1]: 32 ----> 3
[1]: 33 ----> 1
[1]: 33 ----> 4
[1]: 34 ----> 2
[1]: 34 ----> 7
[1]: 35 ----> 5
[1]: 36 ----> 6
[1]: 37 ----> 0
[1]: 37 ----> 1
[1]: 38 ----> 1
[1]: 38 ----> 2
[1]: 39 ----> 2
[1]: 39 ----> 3
[1]: 40 ----> 3
[1]: 40 ----> 0
[1]: 41 ----> 4
[1]: 41 ----> 5
[1]: 42 ----> 5
[1]: 42 ----> 6
[1]: 43 ----> 6
[1]: 43 ----> 7
[1]: 44 ----> 7
[1]: 44 ----> 4
base <-- cap:
[0]: 0 <---- 23 (0)
[0]: 0 <---- 37 (0)
[0]: 0 <---- 40 (-2)
[0]: 0 <---- 31 (-2)
[0]: 1 <---- 24 (0)
[0]: 1 <---- 33 (0)
[0]: 1 <---- 38 (0)
[0]: 1 <---- 37 (-2)
[0]: 2 <---- 38 (-2)
[0]: 2 <---- 34 (0)
[0]: 2 <---- 28 (-2)
[0]: 2 <---- 39 (0)
[0]: 3 <---- 40 (0)
[0]: 3 <---- 39 (-2)
[0]: 3 <---- 27 (-2)
[0]: 3 <---- 32 (-2)
[0]: 4 <---- 25 (0)
[0]: 4 <---- 41 (0)
[0]: 4 <---- 44 (-2)
[0]: 4 <---- 33 (-2)
[0]: 5 <---- 26 (0)
[0]: 5 <---- 35 (0)
[0]: 5 <---- 42 (0)
[0]: 5 <---- 41 (-2)
[0]: 6 <---- 42 (-2)
[0]: 6 <---- 36 (0)
[0]: 6 <---- 30 (-2)
[0]: 6 <---- 43 (0)
[0]: 7 <---- 44 (0)
[0]: 7 <---- 43 (-2)
[0]: 7 <---- 29 (-2)
[0]: 7 <---- 34 (-2)
[0]: 23 <---- 8 (0)
[0]: 23 <---- 14 (0)
[0]: 24 <---- 14 (0)
[0]: 24 <---- 9 (0)
[0]: 25 <---- 9 (0)
[0]: 25 <---- 15 (0)
[0]: 26 <---- 15 (0)
[0]: 26 <---- 10 (0)
[0]: 27 <---- 11 (0)
[0]: 27 <---- 16 (0)
[0]: 28 <---- 16 (0)
[0]: 28 <---- 12 (0)
[0]: 29 <---- 12 (0)
[0]: 29 <---- 17 (0)
[0]: 30 <---- 17 (0)
[0]: 30 <---- 13 (0)
[0]: 31 <---- 8 (0)
[0]: 31 <---- 18 (0)
[0]: 32 <---- 18 (0)
[0]: 32 <---- 11 (0)
[0]: 33 <---- 9 (0)
[0]: 33 <---- 19 (0)
[0]: 34 <---- 19 (0)
[0]: 34 <---- 12 (0)
[0]: 35 <---- 10 (0)
[0]: 35 <---- 20 (0)
[0]: 36 <---- 20 (0)
[0]: 36 <---- 13 (0)
[0]: 37 <---- 14 (0)
[0]: 37 <---- 21 (0)
[0]: 38 <---- 19 (0)
[0]: 38 <---- 21 (0)
[0]: 39 <---- 16 (0)
[0]: 39 <---- 21 (0)
[0]: 40 <---- 18 (0)
[0]: 40 <---- 21 (0)
[0]: 41 <---- 15 (0)
[0]: 41 <---- 22 (0)
[0]: 42 <---- 20 (0)
[0]: 42 <---- 22 (0)
[0]: 43 <---- 17 (0)
[0]: 43 <---- 22 (0)
[0]: 44 <---- 19 (0)
[0]: 44 <---- 22 (0)
[1]: 0 <---- 23 (0)
[1]: 0 <---- 37 (0)
[1]: 0 <---- 40 (-2)
[1]: 0 <---- 31 (-2)
[1]: 1 <---- 24 (0)
[1]: 1 <---- 33 (0)
[1]: 1 <---- 38 (0)
[1]: 1 <---- 37 (-2)
[1]: 2 <---- 38 (-2)
[1]: 2 <---- 34 (0)
[1]: 2 <---- 28 (-2)
[1]: 2 <---- 39 (0)
[1]: 3 <---- 40 (0)
[1]: 3 <---- 39 (-2)
[1]: 3 <---- 27 (-2)
[1]: 3 <---- 32 (-2)
[1]: 4 <---- 25 (0)
[1]: 4 <---- 41 (0)
[1]: 4 <---- 44 (-2)
[1]: 4 <---- 33 (-2)
[1]: 5 <---- 26 (0)
[1]: 5 <---- 35 (0)
[1]: 5 <---- 42 (0)
[1]: 5 <---- 41 (-2)
[1]: 6 <---- 42 (-2)
[1]: 6 <---- 36 (0)
[1]: 6 <---- 30 (-2)
[1]: 6 <---- 43 (0)
[1]: 7 <---- 44 (0)
[1]: 7 <---- 43 (-2)
[1]: 7 <---- 29 (-2)
[1]: 7 <---- 34 (-2)
[1]: 23 <---- 8 (0)
[1]: 23 <---- 14 (0)
[1]: 24 <---- 14 (0)
[1]: 24 <---- 9 (0)
[1]: 25 <---- 9 (0)
[1]: 25 <---- 15 (0)
[1]: 26 <---- 15 (0)
[1]: 26 <---- 10 (0)
[1]: 27 <---- 11 (0)
[1]: 27 <---- 16 (0)
[1]: 28 <---- 16 (0)
[1]: 28 <---- 12 (0)
[1]: 29 <---- 12 (0)
[1]: 29 <---- 17 (0)
[1]: 30 <---- 17 (0)
[1]: 30 <---- 13 (0)
[1]: 31 <---- 8 (0)
[1]: 31 <---- 18 (0)
[1]: 32 <---- 18 (0)
[1]: 32 <---- 11 (0)
[1]: 33 <---- 9 (0)
[1]: 33 <---- 19 (0)
[1]: 34 <---- 19 (0)
[1]: 34 <---- 12 (0)
[1]: 35 <---- 10 (0)
[1]: 35 <---- 20 (0)
[1]: 36 <---- 20 (0)
[1]: 36 <---- 13 (0)
[1]: 37 <---- 14 (0)
[1]: 37 <---- 21 (0)
[1]: 38 <---- 19 (0)
[1]: 38 <---- 21 (0)
[1]: 39 <---- 16 (0)
[1]: 39 <---- 21 (0)
[1]: 40 <---- 18 (0)
[1]: 40 <---- 21 (0)
[1]: 41 <---- 15 (0)
[1]: 41 <---- 22 (0)
[1]: 42 <---- 20 (0)
[1]: 42 <---- 22 (0)
[1]: 43 <---- 17 (0)
[1]: 43 <---- 22 (0)
[1]: 44 <---- 19 (0)
[1]: 44 <---- 22 (0)
coordinates with 1 fields
  field 0 with 2 components
Process 0:
  (   8) dim  2 offset   0 0. 0.5
  (   9) dim  2 offset   2 0.5 0.5
  (  10) dim  2 offset   4 1. 0.5
  (  11) dim  2 offset   6 0. 1.
  (  12) dim  2 offset   8 0.5 1.
  (  13) dim  2 offset  10 1. 1.
  (  14) dim  2 offset  12 0.25 0.5
  (  15) dim  2 offset  14 0.75 0.5
  (  16) dim  2 offset  16 0.25 1.
  (  17) dim  2 offset  18 0.75 1.
  (  18) dim  2 offset  20 0. 0.75
  (  19) dim  2 offset  22 0.5 0.75
  (  20) dim  2 offset  24 1. 0.75
  (  21) dim  2 offset  26 0.25 0.75
  (  22) dim  2 offset  28 0.75 0.75
Process 1:
  (   8) dim  2 offset   0 0. 0.
  (   9) dim  2 offset   2 0.5 0.
  (  10) dim  2 offset   4 1. 0.
  (  11) dim  2 offset   6 0. 0.5
  (  12) dim  2 offset   8 0.5 0.5
  (  13) dim  2 offset  10 1. 0.5
  (  14) dim  2 offset  12 0.25 0.
  (  15) dim  2 offset  14 0.75 0.
  (  16) dim  2 offset  16 0.25 0.5
  (  17) dim  2 offset  18 0.75 0.5
  (  18) dim  2 offset  20 0. 0.25
  (  19) dim  2 offset  22 0.5 0.25
  (  20) dim  2 offset  24 1. 0.25
  (  21) dim  2 offset  26 0.25 0.25
  (  22) dim  2 offset  28 0.75 0.25
Label 'marker':
[0]: 8 (1)
[0]: 10 (1)
[0]: 11 (1)
[0]: 12 (1)
[0]: 13 (1)
[0]: 16 (1)
[0]: 17 (1)
[0]: 18 (1)
[0]: 20 (1)
[0]: 27 (1)
[0]: 28 (1)
[0]: 29 (1)
[0]: 30 (1)
[0]: 31 (1)
[0]: 32 (1)
[0]: 35 (1)
[0]: 36 (1)
[1]: 8 (1)
[1]: 9 (1)
[1]: 10 (1)
[1]: 11 (1)
[1]: 13 (1)
[1]: 14 (1)
[1]: 15 (1)
[1]: 18 (1)
[1]: 20 (1)
[1]: 23 (1)
[1]: 24 (1)
[1]: 25 (1)
[1]: 26 (1)
[1]: 31 (1)
[1]: 32 (1)
[1]: 35 (1)
[1]: 36 (1)
PetscSF Object: 2 MPI processes
  type not yet set
  [0] Number of roots=45, leaves=9, remote ranks=1
  [0] 8 <- (1,11)
  [0] 9 <- (1,12)
  [0] 10 <- (1,13)
  [0] 14 <- (1,16)
  [0] 15 <- (1,17)
  [0] 23 <- (1,27)
  [0] 24 <- (1,28)
  [0] 25 <- (1,29)
  [0] 26 <- (1,30)
  [1] Number of roots=45, leaves=0, remote ranks=0
  [0] Roots referenced by my leaves, by rank
  [0] 1: 9 edges
  [0]    8 <- 11
  [0]    9 <- 12
  [0]    10 <- 13
  [0]    14 <- 16
  [0]    15 <- 17
  [0]    23 <- 27
  [0]    24 <- 28
  [0]    25 <- 29
  [0]    26 <- 30
  [1] Roots referenced by my leaves, by rank
